…
    ## Warning: package 'spotifyr' was built under R version 3.5.2

``` r
source('spotify.R')
```

``` r
#karaoke playlist: 3sJGjIN1wa9KszybCcj0hB
#chill playlist: 0TIMetHqr6J6S6QR19x8yi
chill_playlist = get_playlist_audio_features('11143302739','0TIMetHqr6J6S6QR19x8yi') 
karaoke_playlist = get_playlist_audio_features('11143302739','3sJGjIN1wa9KszybCcj0hB') 
chill_playlist
```

    ## # A tibble: 64 x 61
    ##    playlist_id playlist_name playlist_img playlist_owner_… playlist_owner_…
    ##    <chr>       <chr>         <chr>        <chr>            <chr>           
    ##  1 0TIMetHqr6… Chill         https://mos… 11143302739      11143302739     
    ##  2 0TIMetHqr6… Chill         https://mos… 11143302739      11143302739     
    ##  3 0TIMetHqr6… Chill         https://mos… 11143302739      11143302739     
    ##  4 0TIMetHqr6… Chill         https://mos… 11143302739      11143302739     
    ##  5 0TIMetHqr6… Chill         https://mos… 11143302739      11143302739     
    ##  6 0TIMetHqr6… Chill         https://mos… 11143302739      11143302739     
    ##  7 0TIMetHqr6… Chill         https://mos… 11143302739      11143302739     
    ##  8 0TIMetHqr6… Chill         https://mos… 11143302739      11143302739     
    ##  9 0TIMetHqr6… Chill         https://mos… 11143302739      11143302739     
    ## 10 0TIMetHqr6… Chill         https://mos… 11143302739      11143302739     
    ## # … with 54 more rows, and 56 more variables: danceability <dbl>,
    ## #   energy <dbl>, key <int>, loudness <dbl>, mode <int>,
    ## #   speechiness <dbl>, acousticness <dbl>, instrumentalness <dbl>,
    ## #   liveness <dbl>, valence <dbl>, tempo <dbl>, track.id <chr>,
    ## #   analysis_url <chr>, time_signature <int>, added_at <chr>,
    ## #   is_local <lgl>, primary_color <lgl>, added_by.href <chr>,
    ## #   added_by.id <chr>, added_by.type <chr>, added_by.uri <chr>,
    ## #   added_by.external_urls.spotify <chr>, track.artists <list>,
    ## #   track.available_markets <list>, track.disc_number <int>,
…
``` r
karaoke_playlist
```

    ## # A tibble: 110 x 61
    ##    playlist_id playlist_name playlist_img playlist_owner_… playlist_owner_…
    ##    <chr>       <chr>         <chr>        <chr>            <chr>           
    ##  1 3sJGjIN1wa… Karaoke       https://mos… 11143302739      11143302739     
    ##  2 3sJGjIN1wa… Karaoke       https://mos… 11143302739      11143302739     
    ##  3 3sJGjIN1wa… Karaoke       https://mos… 11143302739      11143302739     
    ##  4 3sJGjIN1wa… Karaoke       https://mos… 11143302739      11143302739     
    ##  5 3sJGjIN1wa… Karaoke       https://mos… 11143302739      11143302739     
    ##  6 3sJGjIN1wa… Karaoke       https://mos… 11143302739      11143302739     
    ##  7 3sJGjIN1wa… Karaoke       https://mos… 11143302739      11143302739     
    ##  8 3sJGjIN1wa… Karaoke       https://mos… 11143302739      11143302739     
    ##  9 3sJGjIN1wa… Karaoke       https://mos… 11143302739      11143302739     
    ## 10 3sJGjIN1wa… Karaoke       https://mos… 11143302739      11143302739     
    ## # … with 100 more rows, and 56 more variables: danceability <dbl>,
    ## #   energy <dbl>, key <int>, loudness <dbl>, mode <int>,
    ## #   speechiness <dbl>, acousticness <dbl>, instrumentalness <dbl>,
    ## #   liveness <dbl>, valence <dbl>, tempo <dbl>, track.id <chr>,
    ## #   analysis_url <chr>, time_signature <int>, added_at <chr>,
    ## #   is_local <lgl>, primary_color <lgl>, added_by.href <chr>,
    ## #   added_by.id <chr>, added_by.type <chr>, added_by.uri <chr>,
    ## #   added_by.external_urls.spotify <chr>, track.artists <list>,
    ## #   track.available_markets <list>, track.disc_number <int>,
…
